{
  "colors" : [
    {
      "color" : {
        "components" : {
          "red" : "0.529",
          "green" : "0.529",
          "blue" : "0.529",
          "alpha" : "1.000"
        },
        "color-space" : "srgb"
      },
      "idiom" : "universal"
    }
  ],
  "info" : {
    "version" : 1,
    "author" : "xcode"
  }
}